C:\sicredi\src\main\java\JUnit_Tests\Products.java
C:\sicredi\src\main\java\JUnit_Tests\AuthLogin.java
C:\sicredi\src\main\java\JUnit_Tests\Users.java
C:\sicredi\src\main\java\JUnit_Tests\AuthProducts.java
C:\sicredi\src\main\java\JUnit_Tests\AddProducts.java
C:\sicredi\src\main\java\JUnit_Tests\SingleProduct.java
